{
    "name": "SwiftFramework.ResourcesManager",
    "references": [
        "GUID:bfc91bbf13d2e6d408ccfd432ece8138"
    ],
    "includePlatforms": [],
    "excludePlatforms": [],
    "allowUnsafeCode": false,
    "overrideReferences": false,
    "precompiledReferences": [],
    "autoReferenced": true,
    "defineConstraints": [],
    "versionDefines": []
}