%YAML 1.1
%TAG !u! tag:unity3d.com,2011:
--- !u!114 &11400000
MonoBehaviour:
  m_ObjectHideFlags: 0
  m_CorrespondingSourceObject: {fileID: 0}
  m_PrefabInstance: {fileID: 0}
  m_PrefabAsset: {fileID: 0}
  m_GameObject: {fileID: 0}
  m_Enabled: 1
  m_EditorHideFlags: 0
  m_Script: {fileID: 11500000, guid: e515443e8890e9b4b98a4ff41af575dd, type: 3}
  m_Name: TestGoogleSheetConfigList
  m_EditorClassIdentifier: 
  url: https://docs.google.com/spreadsheets/d/e/2PACX-1vRDUzkzs8BqPzAFfeWFxr3l0StYNv51Dw3PYiWtVwVSPLf2Qbzw7aBFQqH2MFNojtODzogQGNAI9H-U/pub?gid=2065300199&single=true&output=tsv
  data:
  - Name: Item
    Value: value2
  - Name: Item
    Value: value3
